{
  "Workflow": {
    "Algorithms": {
      "splinter_monolith": {
        "package": "life",
        "version": "latest",
        "module": "analytics",
        "function": "running_monolith",
        "projectURI": "https://bitbucket.org/lifecorporation/pynocchio_platform.git",
        "default": {
          "garment_type": "performer_running"
        }
      }
    },
    "Pipelines": {
      "splinter_monolith": {
        "transform": "splinter_monolith",
        "upstream": {
          "acc_l5": {
            "type": "device",
            "sensorType": "ACCELEROMETER_3D",
            "sensorPosition": "0x26afd8f",
            "sensorChannels": [
              "x",
              "y",
              "z"
            ],
            "sensorCal": true
          },
          "acc_r_arm": {
            "type": "device",
            "sensorType": "ACCELEROMETER_3D",
            "sensorPosition": "0x281fe5f",
            "sensorChannels": [
              "x",
              "y",
              "z"
            ],
            "sensorCal": true
          },
          "acc_l_arm": {
            "type": "device",
            "sensorType": "ACCELEROMETER_3D",
            "sensorPosition": "0x2a1fe5f",
            "sensorChannels": [
              "x",
              "y",
              "z"
            ],
            "sensorCal": true
          },
          "gyro_r_thg": {
            "type": "device",
            "sensorType": "GYROSCOPE_3D",
            "sensorPosition": "0x289fe5f",
            "sensorChannels": [
              "x",
              "y",
              "z"
            ],
            "sensorCal": true
          },
          "gyro_l_thg": {
            "type": "device",
            "sensorType": "GYROSCOPE_3D",
            "sensorPosition": "0x2a9fe5f",
            "sensorChannels": [
              "x",
              "y",
              "z"
            ],
            "sensorCal": true
          },
          "quat_t3": {
            "type": "device",
            "sensorType": "QUATERNIONS",
            "sensorPosition": "0x268fd9f",
            "sensorChannels": [
              "q0",
              "q1",
              "q2",
              "q3"
            ],
            "sensorCal": false
          },
          "quat_t9": {
            "type": "device",
            "sensorType": "QUATERNIONS",
            "sensorPosition": "0x268fdaf",
            "sensorChannels": [
              "q0",
              "q1",
              "q2",
              "q3"
            ],
            "sensorCal": false
          },
          "quat_l5": {
            "type": "device",
            "sensorType": "QUATERNIONS",
            "sensorPosition": "0x26afd8f",
            "sensorChannels": [
              "q0",
              "q1",
              "q2",
              "q3"
            ],
            "sensorCal": false
          },
          "ecg": {
            "type": "device",
            "sensorType": "ELECTROCARDIOGRAM_2_CH",
            "sensorPosition": "0x26fffff",
            "sensorChannels": [
              "ch1",
              "ch2"
            ],
            "sensorCal": true
          },
          "breath": {
            "type": "device",
            "sensorType": "RESPIRATION_2_CH",
            "sensorPosition": "0x26fffff",
            "sensorChannels": [
              "xif",
              "abd"
            ],
            "sensorCal": false
          }
        },
        "downstream": [
          {
            "sinks": [
              "main_sink"
            ],
            "id": "monolith_output"
          }
        ]
      }
    }
  }
}