{
  "Workflow": {
    "EnableChunks": true,
    "Algorithms": {
      "splinter_monolith": {
        "package": "life",
        "version": "latest",
        "module": "analytics",
        "function": "cycling_monolith",
        "projectURI": "https://bitbucket.org/lifecorporation/pynocchio_platform.git",
        "default": {
          "garment_type": "performer_cycling"
        }
      },
      "prototypal_algos": {
        "package": "life",
        "version": "latest",
        "module": "analytics",
        "function": "prototypal_algos_proxy",
        "projectURI": "https://bitbucket.org/lifecorporation/pynocchio_platform.git",
        "default": {}
      }
    },
    "Pipelines": {
      "splinter_monolith": {
        "transform": "splinter_monolith",
        "upstream": {
          "acc_t3": {
            "type": "device",
            "sensorType": "ACCELEROMETER_3D",
            "sensorPosition": "0x268fd9f",
            "sensorChannels": [
              "x",
              "y",
              "z"
            ],
            "sensorCal": true
          },
          "acc_l5": {
            "type": "device",
            "sensorType": "ACCELEROMETER_3D",
            "sensorPosition": "0x26afd8f",
            "sensorChannels": [
              "x",
              "y",
              "z"
            ],
            "sensorCal": true
          },
          "gyro_r_thg": {
            "type": "device",
            "sensorType": "GYROSCOPE_3D",
            "sensorPosition": "0x289fe5f",
            "sensorChannels": [
              "x",
              "y",
              "z"
            ],
            "sensorCal": true
          },
          "quat_l5": {
            "type": "device",
            "sensorType": "QUATERNIONS",
            "sensorPosition": "0x26afd8f",
            "sensorChannels": [
              "q0",
              "q1",
              "q2",
              "q3"
            ],
            "sensorCal": false
          },
          "ecg": {
            "type": "device",
            "sensorType": "ELECTROCARDIOGRAM_2_CH",
            "sensorPosition": "0x26fffff",
            "sensorChannels": [
              "ch1",
              "ch2"
            ],
            "sensorCal": true
          },
          "breath": {
            "type": "device",
            "sensorType": "RESPIRATION_2_CH",
            "sensorPosition": "0x26fffff",
            "sensorChannels": [
              "xif",
              "abd"
            ],
            "sensorCal": false
          },
          "gps": {
            "type": "device",
            "sensorType": "GPS",
            "sensorPosition": "0x3ffffff",
            "sensorChannels": [
              "longitude",
              "latitude",
              "utc_time",
              "accuracy",
              "altitude",
              "bearing",
              "speed",
              "num_sat_used",
              "num_sat_seen"
            ],
            "sensorCal": false
          }
        },
        "downstream": [
          {
            "sinks": ["main_sink"],
            "id": "monolith_output"
          }
        ]
      },
      "prototypal_algos" :  {
        "transform": "prototypal_algos",
        "upstream": {
          "acc_t3": {
            "type": "device",
            "sensorType": "ACCELEROMETER_3D",
            "sensorPosition": "0x268fd9f",
            "sensorChannels": [
              "x",
              "y",
              "z"
            ],
            "sensorCal": true
          },
          "acc_l5": {
            "type": "device",
            "sensorType": "ACCELEROMETER_3D",
            "sensorPosition": "0x26afd8f",
            "sensorChannels": [
              "x",
              "y",
              "z"
            ],
            "sensorCal": true
          },
          "gyro_r_thg": {
            "type": "device",
            "sensorType": "GYROSCOPE_3D",
            "sensorPosition": "0x289fe5f",
            "sensorChannels": [
              "x",
              "y",
              "z"
            ],
            "sensorCal": true
          },
          "quat_l5": {
            "type": "device",
            "sensorType": "QUATERNIONS",
            "sensorPosition": "0x26afd8f",
            "sensorChannels": [
              "q0",
              "q1",
              "q2",
              "q3"
            ],
            "sensorCal": false
          },
          "ecg": {
            "type": "device",
            "sensorType": "ELECTROCARDIOGRAM_2_CH",
            "sensorPosition": "0x26fffff",
            "sensorChannels": [
              "ch1",
              "ch2"
            ],
            "sensorCal": true
          },
          "breath": {
            "type": "device",
            "sensorType": "RESPIRATION_2_CH",
            "sensorPosition": "0x26fffff",
            "sensorChannels": [
              "xif",
              "abd"
            ],
            "sensorCal": false
          },
          "gps": {
            "type": "device",
            "sensorType": "GPS",
            "sensorPosition": "0x3ffffff",
            "sensorChannels": [
              "longitude",
              "latitude",
              "utc_time",
              "accuracy",
              "altitude",
              "bearing",
              "speed",
              "num_sat_used",
              "num_sat_seen"
            ],
            "sensorCal": false
          }
        },
        "downstream": [
          {
            "sinks": ["main_sink"],
            "id": "*"
          }
        ]
      }
    }
  }
}