{
  "metrics": {
    "2000": [
      "Accelerometer-Raw-Timeseries",
      "ActivityLevel-Scalars",
      "ActivityLevel-TimeSeries",
      "ActivityType-TimeSeries",
      "Breath-Connection-Status",
      "Breath-Failure-Status",
      "Breath-Instant-of-Failure",
      "BreathBaselineFilteredSignal-Batch-MedEvo-3ch-abd",
      "BreathBaselineFilteredSignal-Batch-MedEvo-3ch-sum",
      "BreathBaselineFilteredSignal-Batch-MedEvo-3ch-sum_trx_xif",
      "BreathBaselineFilteredSignal-Batch-MedEvo-3ch-trx",
      "BreathBaselineFilteredSignal-Batch-MedEvo-3ch-xif",
      "BreathRate-MedEvo-Bounded",
      "BreathRate-MedEvo-Smoothed",
      "BreathRate-MedEvo-Weighted-Bounded",
      "BreathRate-MedEvo-Weighted-Smoothed",
      "BreathRate-trx-xif-MedEvo-Bounded",
      "BreathRate-trx-xif-MedEvo-Smoothed",
      "Ecg-LeadOff-Connection-Status",
      "EcgBaselineFilteredSignalBatch-MedEvo-2ch-avf",
      "EcgBaselineFilteredSignalBatch-MedEvo-2ch-avl",
      "EcgBaselineFilteredSignalBatch-MedEvo-2ch-avr",
      "EcgBaselineFilteredSignalBatch-MedEvo-2ch-l1",
      "EcgBaselineFilteredSignalBatch-MedEvo-2ch-l2",
      "EcgBaselineFilteredSignalBatch-MedEvo-2ch-l3",
      "EcgDiagnosticNotchFilteredSignalBatch-MedEvo-2ch-avf",
      "EcgDiagnosticNotchFilteredSignalBatch-MedEvo-2ch-avl",
      "EcgDiagnosticNotchFilteredSignalBatch-MedEvo-2ch-avr",
      "EcgDiagnosticNotchFilteredSignalBatch-MedEvo-2ch-l1",
      "EcgDiagnosticNotchFilteredSignalBatch-MedEvo-2ch-l2",
      "EcgDiagnosticNotchFilteredSignalBatch-MedEvo-2ch-l3",
      "EcgQualitySignalEvents-MedEvo",
      "GPS-Positions-Coordinates",
      "Global-Breath-Connection-Status",
      "Global-Ecg-LeadOff-Connection-Status",
      "HeartRate-MedEvo-Bounded",
      "HeartRate-MedEvo-Smoothed",
      "LastAlarmLevel-Breath-Rate-Medevo",
      "LastAlarmLevel-Heart-Rate-Medevo",
      "LastAlarmLevel-Medevo",
      "LastAlarmLevel-Spo2-Qualitative",
      "LastAlarmLevel-Temperature-Medevo",
      "Position-Scalars",
      "Position-TimeSeries",
      "Spo2-Instant-of-Failure",
      "Step-Frequency-Scalars",
      "Temperature-Connection-Status",
      "Temperature-Failure-Status",
      "Temperature-Instant-of-Failure",
      "Wearing-Status-Timeseries"
    ],
    "4000": [
      "ActivityType-Scalars",
      "BreathRate-MedEvo-Scalars-Bounded",
      "BreathRate-MedEvo-Scalars-Smoothed",
      "BreathRate-Scalars-trx-xif-MedEvo-Bounded",
      "BreathRate-Scalars-trx-xif-MedEvo-Smoothed",
      "Global-Step-Count",
      "HeartRate-MedEvo-Scalars-Bounded",
      "HeartRate-MedEvo-Scalars-Smoothed"
    ],
    "60000": [
      "OneMin-Step-Count"
    ],
    "600000": [
      "Spo2-Connection-Status",
      "Spo2-Estimated-ScalarsBatch",
      "Spo2-Estimated-ScalarsBatch-Labeled",
      "Spo2-Estimated-TimeSeriesBatch",
      "Spo2-Estimated-TimeSeriesBatch-Labeled",
      "Spo2-Failure-Status"
    ]
  },
  "sensors": [
    {
      "sensorType": "ACCELEROMETER_3D",
      "sensorPosition": "0x268fd9f",
      "fs": 100
    },
    {
      "sensorType": "RESPIRATION_3_CH",
      "sensorPosition": "0x26fffff",
      "fs": 50
    },
    {
      "sensorType": "TEMPERATURE",
      "sensorPosition": "0x268fc4f",
      "fs": 1
    },
    {
      "sensorType": "ELECTROCARDIOGRAM_2_CH",
      "sensorPosition": "0x26ffffe",
      "fs": 500
    },
    {
      "sensorType": "SPO2",
      "sensorPosition": "0x268fe4f",
      "fs": 1
    },
    {
      "sensorType": "GPS",
      "sensorPosition": "0x3ffffff",
      "fs": 1
    },
    {
      "sensorType": "ECG_LEAD_OFF_2_CH",
      "sensorPosition": "0x26ffffe",
      "fs": 1
    }
  ]
}