{
  "Workflow": {
    "EnableChunks": true,
    "Algorithms": {
      "splinter_monolith": {
        "package": "life",
        "version": "latest",
        "module": "analytics",
        "function": "polysomnography_lv2_monolith",
        "projectURI": "https://bitbucket.org/lifecorporation/pynocchio_platform.git",
        "default": {
          "garment_type": "md_chest"
        }
      },
      "prototypal_algos": {
        "package": "life",
        "version": "latest",
        "module": "analytics",
        "function": "prototypal_algos_proxy",
        "projectURI": "https://bitbucket.org/lifecorporation/pynocchio_platform.git",
        "default": {}
      }
    },
    "Pipelines": {
      "splinter_monolith": {
        "transform": "splinter_monolith",
        "upstream": {
          "acc_t3": {
            "type": "device",
            "sensorType": "ACCELEROMETER_3D",
            "sensorPosition": "0x268fd9f",
            "sensorChannels": [
              "x",
              "y",
              "z"
            ],
            "sensorCal": true
          },
          "ecg": {
            "type": "device",
            "sensorType": "ELECTROCARDIOGRAM_8_CH",
            "sensorPosition": "0x3ffffff",
            "sensorChannels": [
              "l2",
              "v4",
              "v6",
              "v1",
              "v2",
              "v3",
              "v5",
              "l1"
            ],
            "sensorCal": true
          },
          "breath": {
            "type": "device",
            "sensorType": "RESPIRATION_3_CH",
            "sensorPosition": "0x26fffff",
            "sensorChannels": [
              "trx",
              "xif",
              "abd"
            ],
            "sensorCal": false
          },
          "temp": {
            "type": "device",
            "sensorType": "TEMPERATURE",
            "sensorPosition": "0x268fe4f",
            "sensorChannels": [
              "value"
            ],
            "sensorCal": false
          },
          "spo2_left_index": {
            "type": "device",
            "sensorType": "SPO2",
            "sensorPosition": "0x2a56bff",
            "sensorChannels": [
              "spo2_eng",
              "spo2_perfusion_eng",
              "spo2_quality_eng",
              "spo2_status_eng"
            ],
            "sensorCal": false
          },
          "ecg_lead_off": {
            "type": "device",
            "sensorType": "ECG_LEAD_OFF_8_CH",
            "sensorPosition": "0x3ffffff",
            "sensorChannels": [
              "v1",
              "v2",
              "v3",
              "v4",
              "v5",
              "v6",
              "la",
              "ll",
              "ra"
            ],
            "sensorCal": false
          }
        },
        "downstream": [
          {
            "sinks": ["main_sink"],
            "id": "monolith_output"
          }
        ]
      },
      "prototypal_algos" :  {
        "transform": "prototypal_algos",
        "upstream": {
          "acc_t3": {
            "type": "device",
            "sensorType": "ACCELEROMETER_3D",
            "sensorPosition": "0x268fd9f",
            "sensorChannels": [
              "x",
              "y",
              "z"
            ],
            "sensorCal": true
          },
          "ecg": {
            "type": "device",
            "sensorType": "ELECTROCARDIOGRAM_8_CH",
            "sensorPosition": "0x3ffffff",
            "sensorChannels": [
              "l2",
              "v4",
              "v6",
              "v1",
              "v2",
              "v3",
              "v5",
              "l1"
            ],
            "sensorCal": true
          },
          "breath": {
            "type": "device",
            "sensorType": "RESPIRATION_3_CH",
            "sensorPosition": "0x26fffff",
            "sensorChannels": [
              "trx",
              "xif",
              "abd"
            ],
            "sensorCal": false
          },
          "temp": {
            "type": "device",
            "sensorType": "TEMPERATURE",
            "sensorPosition": "0x268fe4f",
            "sensorChannels": [
              "value"
            ],
            "sensorCal": false
          },
          "spo2_left_index": {
            "type": "device",
            "sensorType": "SPO2",
            "sensorPosition": "0x2a56bff",
            "sensorChannels": [
              "spo2_eng",
              "spo2_perfusion_eng",
              "spo2_quality_eng",
              "spo2_status_eng"
            ],
            "sensorCal": false
          },
          "ecg_lead_off": {
            "type": "device",
            "sensorType": "ECG_LEAD_OFF_8_CH",
            "sensorPosition": "0x3ffffff",
            "sensorChannels": [
              "v1",
              "v2",
              "v3",
              "v4",
              "v5",
              "v6",
              "la",
              "ll",
              "ra"
            ],
            "sensorCal": false
          }
        },
        "downstream": [
          {
            "sinks": ["main_sink"],
            "id": "*"
          }
        ]
      }
    }
  }
}