{
  "metrics": {
    "2000": [
      "Accelerometer-Raw-Timeseries",
      "ActivityLevel-Scalars",
      "ActivityLevel-TimeSeries",
      "ActivityType-TimeSeries",
      "AlarmTimeseries",
      "Beat-to-Beat-Rate-MedEvo",
      "Breath-Connection-Status",
      "Breath-Failure-Status",
      "Breath-Instant-of-Failure",
      "Breath-to-Breath-Rate-MedEvo",
      "Breath-to-Breath-Rate-MedEvo-trx-xif",
      "BreathBaselineFilteredSignal-MedEvo-3ch-abd",
      "BreathBaselineFilteredSignal-MedEvo-3ch-sum",
      "BreathBaselineFilteredSignal-MedEvo-3ch-sum_trx_xif",
      "BreathBaselineFilteredSignal-MedEvo-3ch-trx",
      "BreathBaselineFilteredSignal-MedEvo-3ch-xif",
      "BreathRate-AlarmTimeseries",
      "BreathRate-MedEvo-Bounded",
      "BreathRate-MedEvo-Smoothed",
      "BreathRate-MedEvo-Weighted-Bounded",
      "BreathRate-MedEvo-Weighted-Smoothed",
      "BreathRate-trx-xif-MedEvo-Bounded",
      "BreathRate-trx-xif-MedEvo-Smoothed",
      "Ecg-LeadOff-Connection-Status",
      "EcgBaselineFilteredSignal-MedEvo-8ch-avf",
      "EcgBaselineFilteredSignal-MedEvo-8ch-avl",
      "EcgBaselineFilteredSignal-MedEvo-8ch-avr",
      "EcgBaselineFilteredSignal-MedEvo-8ch-l1",
      "EcgBaselineFilteredSignal-MedEvo-8ch-l2",
      "EcgBaselineFilteredSignal-MedEvo-8ch-l3",
      "EcgBaselineFilteredSignal-MedEvo-8ch-v1",
      "EcgBaselineFilteredSignal-MedEvo-8ch-v2",
      "EcgBaselineFilteredSignal-MedEvo-8ch-v3",
      "EcgBaselineFilteredSignal-MedEvo-8ch-v4",
      "EcgBaselineFilteredSignal-MedEvo-8ch-v5",
      "EcgBaselineFilteredSignal-MedEvo-8ch-v6",
      "EcgDiagnosticNotchFilteredSignal-MedEvo-8ch-avf",
      "EcgDiagnosticNotchFilteredSignal-MedEvo-8ch-avl",
      "EcgDiagnosticNotchFilteredSignal-MedEvo-8ch-avr",
      "EcgDiagnosticNotchFilteredSignal-MedEvo-8ch-l1",
      "EcgDiagnosticNotchFilteredSignal-MedEvo-8ch-l2",
      "EcgDiagnosticNotchFilteredSignal-MedEvo-8ch-l3",
      "EcgDiagnosticNotchFilteredSignal-MedEvo-8ch-v1",
      "EcgDiagnosticNotchFilteredSignal-MedEvo-8ch-v2",
      "EcgDiagnosticNotchFilteredSignal-MedEvo-8ch-v3",
      "EcgDiagnosticNotchFilteredSignal-MedEvo-8ch-v4",
      "EcgDiagnosticNotchFilteredSignal-MedEvo-8ch-v5",
      "EcgDiagnosticNotchFilteredSignal-MedEvo-8ch-v6",
      "EcgQualitySignalEvents-MedEvo",
      "Global-Breath-Connection-Status",
      "Global-Ecg-LeadOff-Connection-Status",
      "HeartRate-AlarmTimeseries",
      "HeartRate-MedEvo-Bounded",
      "HeartRate-MedEvo-Smoothed",
      "LastAlarmLevel-Breath-Rate-Medevo",
      "LastAlarmLevel-Heart-Rate-Medevo",
      "LastAlarmLevel-Medevo",
      "LastAlarmLevel-Spo2-Diagnostic",
      "LastAlarmLevel-Spo2-Qualitative",
      "LastAlarmLevel-Temperature-Medevo",
      "Position-Scalars",
      "Position-TimeSeries",
      "Spo2-Connection-Status",
      "Spo2-Diagnostic-AlarmTimeseries",
      "Spo2-Diagnostic-TimeSeries-Bounded",
      "Spo2-Failure-Status",
      "Spo2-Instant-of-Failure",
      "Spo2-Qualitative-AlarmTimeseries",
      "Spo2_filtered-Qualitative-TimeSeries-Bounded",
      "Step-Frequency-Scalars",
      "Temperature-AlarmTimeseries",
      "Temperature-Connection-Status",
      "Temperature-Failure-Status",
      "Temperature-Instant-of-Failure",
      "Temperature-Structured-TimeSeries-Bounded",
      "Temperature-Structured-TimeSeries-Smoothed",
      "Wearing-Status-Timeseries"
    ],
    "4000": [
      "ActivityType-Scalars",
      "BreathRate-MedEvo-Scalars-Bounded",
      "BreathRate-MedEvo-Scalars-Smoothed",
      "BreathRate-Scalars-trx-xif-MedEvo-Bounded",
      "BreathRate-Scalars-trx-xif-MedEvo-Smoothed",
      "Global-Step-Count",
      "HeartRate-MedEvo-Scalars-Bounded",
      "HeartRate-MedEvo-Scalars-Smoothed",
      "SpO2-Diagnostic-Desaturation-Scalars",
      "SpO2-Diagnostic-Scalars-Bounded",
      "Temperature-Scalars-Bounded",
      "Temperature-Scalars-Smoothed"
    ],
    "60000": [
      "OneMin-Step-Count",
      "Spo2-Estimated-Scalars",
      "Spo2-Estimated-Scalars-Labeled",
      "Spo2-Estimated-TimeSeries",
      "Spo2-Estimated-TimeSeries-Labeled"
    ]
  },
  "sensors": [
    {
      "sensorType": "ACCELEROMETER_3D",
      "sensorPosition": "0x268fd9f",
      "fs": 50
    },
    {
      "sensorType": "ELECTROCARDIOGRAM_8_CH",
      "sensorPosition": "0x26ffffe",
      "fs": 100
    },
    {
      "sensorType": "RESPIRATION_3_CH",
      "sensorPosition": "0x26fffff",
      "fs": 50
    },
    {
      "sensorType": "TEMPERATURE",
      "sensorPosition": "0x1",
      "fs": 1
    },
    {
      "sensorType": "TEMPERATURE",
      "sensorPosition": "0x268fe4f",
      "fs": 1
    },
    {
      "sensorType": "SPO2",
      "sensorPosition": "0x268fc4f",
      "fs": 1
    },
    {
      "sensorType": "SPO2",
      "sensorPosition": "0x2a56bff",
      "fs": 1
    },
    {
      "sensorType": "ECG_LEAD_OFF_8_CH",
      "sensorPosition": "0x26ffffe",
      "fs": 1
    }
  ]
}