{
  "Metadata": {
    "Version": "v2",
    "Session": {
      "type": "upload",
      "id": "{{.SessionUUID}}",
      "userId": "{{.UserUUID}}",
      "userClass": "dummy_class",
      "filesTotal": "{{.NumFiles}}",
      "users": [],
      "excludedAlgorithms": [],
      "excludedPipes": [],
      "sessionConfigURI": null,
      "sessionConfigTemplateURI": null,
      "sessionStateURI": null
    },
    "Environment": {
      "ExtraPackages": {
        "LIFE": {
          "URI": "..."
        }
      }
    },
    "Sinks": {
      "main_sink": {
        "type": "hdfs"
      }
    },
    "Sensors": []
  }
}