{
  "Metadata": {
    "Version": "v2",
    "Session": {
      "type": "batch",
      "id": "{{.SessionUUID}}",
      "userId": "{{.UserUUID}}",
      "userClass": "dummy_class",
      "filesTotal": "{{.NumFiles}}",
      "users": [],
      "excludedAlgorithms": [],
      "excludedPipes": [],
      "sessionConfigURI": null,
      "sessionConfigTemplateURI": null,
      "sessionStateURI": null
    },
    "Environment": {
      "ExtraPackages": {
        "LIFE": {
          "URI": "..."
        }
      }
    },
    "Sinks": {
      "main_sink": {
        "type": "hdfs"
      }
    },
    "Sensors": [
      {
        "sensorType": "ACCELEROMETER_3D",
        "sensorPosition": "0x26afd8f",
        "fs": 100
      },
      {
        "sensorType": "ACCELEROMETER_3D",
        "sensorPosition": "0x281fe5f",
        "fs": 100
      },
      {
        "sensorType": "ACCELEROMETER_3D",
        "sensorPosition": "0x2a1fe5f",
        "fs": 100
      },
      {
        "sensorType": "ELECTROCARDIOGRAM_1_CH",
        "sensorPosition": "0x26fffff",
        "fs": 500
      },
      {
        "sensorType": "GYROSCOPE_3D",
        "sensorPosition": "0x289fe5f",
        "fs": 100
      },
      {
        "sensorType": "GYROSCOPE_3D",
        "sensorPosition": "0x2a9fe5f",
        "fs": 100
      },
      {
        "sensorType": "QUATERNIONS",
        "sensorPosition": "0x268fd9f",
        "fs": 100
      },
      {
        "sensorType": "QUATERNIONS",
        "sensorPosition": "0x268fdaf",
        "fs": 100
      },
      {
        "sensorType": "QUATERNIONS",
        "sensorPosition": "0x26afd8f",
        "fs": 100
      },
      {
        "sensorType": "RESPIRATION_3_CH",
        "sensorPosition": "0x26fffff",
        "fs": 50
      },
      {
        "sensorType": "ELECTROCARDIOGRAM_2_CH",
        "sensorPosition": "0x26ffffe",
        "fs": 500
      }
    ]
  }
}