{
  "Metadata": {
    "Version": "v2",
    "Session": {
      "type": "batch",
      "id": "{{.SessionUUID}}",
      "userId": "{{.UserUUID}}",
      "userClass": "dummy_class",
      "filesTotal": "{{.NumFiles}}",
      "users": [],
      "excludedAlgorithms": [],
      "excludedPipes": [],
      "sessionConfigURI": null,
      "sessionConfigTemplateURI": null,
      "sessionStateURI": null
    },
    "Environment": {
      "ExtraPackages": {
        "LIFE": {
          "URI": "..."
        }
      }
    },
    "Sinks": {
      "main_sink": {
        "type": "hdfs"
      }
    },
    "Sensors": [
      {
        "sensorType": "ACCELEROMETER_3D",
        "sensorPosition": "0x268fd9f",
        "fs": 100
      },
      {
        "sensorType": "ELECTROCARDIOGRAM_8_CH",
        "sensorPosition": "0x3ffffff",
        "fs": 500
      },
      {
        "sensorType": "RESPIRATION_3_CH",
        "sensorPosition": "0x26fffff",
        "fs": 50
      },
      {
        "sensorType": "TEMPERATURE",
        "sensorPosition": "0x268fe4f",
        "fs": 1
      },
      {
        "sensorType": "SPO2",
        "sensorPosition": "0x2a56bff",
        "fs": 1
      },
      {
        "sensorType": "ECG_LEAD_OFF_8_CH",
        "sensorPosition": "0x3ffffff",
        "fs": 1
      },
      {
        "sensorType": "GPS",
        "sensorPosition": "0x3ffffff",
        "fs": 1
      }
    ]
  }
}