{
  "metrics": {
    "2000": [
      "BreathBaselineFilteredSignal-3ch-abd",
      "BreathBaselineFilteredSignal-3ch-sum",
      "BreathBaselineFilteredSignal-3ch-sum_trx_xif",
      "BreathBaselineFilteredSignal-3ch-trx",
      "BreathBaselineFilteredSignal-3ch-xif",
      "BreathRate-Performer-Bounded",
      "BreathRate-Performer-Smoothed",
      "BreathRate-Performer-trx-xif-Bounded",
      "BreathRate-Performer-trx-xif-Smoothed",
      "Cadence-Performer-Cycling",
      "DutyCycle-Performer-Cycling",
      "EcgBaselineFilteredSignal-2ch-avf",
      "EcgBaselineFilteredSignal-2ch-avl",
      "EcgBaselineFilteredSignal-2ch-avr",
      "EcgBaselineFilteredSignal-2ch-l1",
      "EcgBaselineFilteredSignal-2ch-l2",
      "EcgBaselineFilteredSignal-2ch-l3",
      "EcgBaselineFilteredSignal-frontal-ch",
      "EcgDiagnosticNotchFilteredSignal-2ch-avf",
      "EcgDiagnosticNotchFilteredSignal-2ch-avl",
      "EcgDiagnosticNotchFilteredSignal-2ch-avr",
      "EcgDiagnosticNotchFilteredSignal-2ch-l1",
      "EcgDiagnosticNotchFilteredSignal-2ch-l2",
      "EcgDiagnosticNotchFilteredSignal-2ch-l3",
      "EcgDiagnosticNotchFilteredSignal-frontal-ch",
      "EcgQualitySignal",
      "EcgQualitySignal-frontal-ch",
      "HeartRate-Performer-Bounded",
      "HeartRate-Performer-Smoothed",
      "HeartRate-Performer-frontal-ch-Scalars",
      "HeartRate-Performer-frontal-ch-Scalars-Bounded",
      "HeartRate-Performer-frontal-ch-Scalars-Smoothed",
      "HeartRate-Performer-frontal-ch-TimeSeries",
      "HeartRate-Performer-frontal-ch-TimeSeries-Bounded",
      "HeartRate-Performer-frontal-ch-TimeSeries-Smoothed",
      "MediolateralAcceleration-Performer-Cycling",
      "PelvicObliquity-Performer-Cycling",
      "PelvicTilt-Performer-Cycling",
      "SaddleOffsaddle-Performer-Cycling"
    ],
    "4000": [
      "BreathRate-Scalars-Bounded",
      "BreathRate-Scalars-Smoothed",
      "BreathRate-Scalars-trx-xif-Bounded",
      "BreathRate-Scalars-trx-xif-Smoothed",
      "Cadence-Performer-Cycling-Avg",
      "Cadence-Performer-Cycling-Max",
      "Cadence-Performer-Cycling-Min",
      "DutyCycle-Performer-Cycling-Avg",
      "DutyCycle-Performer-Cycling-Max",
      "DutyCycle-Performer-Cycling-Min",
      "HeartRate-Scalars-Bounded",
      "HeartRate-Scalars-Smoothed",
      "MediolateralAcceleration-Performer-Cycling-Avg",
      "PelvicObliquity-Performer-Cycling-Avg",
      "PelvicObliquity-Performer-Cycling-Max",
      "PelvicObliquity-Performer-Cycling-Min",
      "PelvicTilt-Performer-Cycling-Avg",
      "PelvicTilt-Performer-Cycling-Max",
      "PelvicTilt-Performer-Cycling-Min",
      "SaddleOffsaddle-Performer-Cycling-Avg"
    ]
  },
  "sensors": [
    {
      "sensorType": "ACCELEROMETER_3D",
      "sensorPosition": "0x268fd9f",
      "fs": 100
    },
    {
      "sensorType": "ACCELEROMETER_3D",
      "sensorPosition": "0x26afd8f",
      "fs": 100
    },
    {
      "sensorType": "ELECTROCARDIOGRAM_1_CH",
      "sensorPosition": "0x26fffff",
      "fs": 500
    },
    {
      "sensorType": "GYROSCOPE_3D",
      "sensorPosition": "0x289fe5f",
      "fs": 100
    },
    {
      "sensorType": "QUATERNIONS",
      "sensorPosition": "0x26afd8f",
      "fs": 100
    },
    {
      "sensorType": "RESPIRATION_3_CH",
      "sensorPosition": "0x26fffff",
      "fs": 50
    },
    {
      "sensorType": "ELECTROCARDIOGRAM_2_CH",
      "sensorPosition": "0x26ffffe",
      "fs": 500
    }
  ]
}